{
  "4003:0F193031": {
    "_modelId": "000000000000",
    "_name": "Wireless Keyboard K270(unifying)",
    "_serial": "0F193031",
    "_unitId": "00000000"
  },
  "4069:37BB0FCA": {
    "_modelId": "B01E40710000",
    "_name": "Wireless Mouse MX Master 2S",
    "_serial": "37BB0FCA",
    "_unitId": "20FCEF34",
    "divert-keys": {
      "195": 0,
      "196": 0,
      "215": 0,
      "82": 0,
      "83": 0,
      "86": 0
    },
    "dpi": 1000,
    "dpi-sliding": 0,
    "gesture2-gestures": {
      "45": true,
      "46": true
    },
    "hires-smooth-invert": false,
    "hires-smooth-resolution": true,
    "mouse-gestures": 0,
    "reprogrammable-keys": {
      "195": 195,
      "196": 196,
      "80": 80,
      "81": 81,
      "82": 82,
      "83": 83,
      "86": 86
    },
    "smart-shift": 16
  },
  "4069:DB37EDED": {
    "_modelId": "B01940690000",
    "_name": "Wireless Mouse MX Master 2S",
    "_serial": "DB37EDED",
    "_unitId": "127BEBDC",
    "divert-keys": {
      "195": 1,
      "196": 1,
      "215": 0,
      "82": 0,
      "83": 0,
      "86": 0
    },
    "dpi": 2500,
    "dpi-sliding": 0,
    "gesture2-gestures": {
      "45": true,
      "46": true
    },
    "hires-smooth-invert": false,
    "hires-smooth-resolution": true,
    "mouse-gestures": 0,
    "reprogrammable-keys": {
      "195": 195,
      "196": 196,
      "80": 80,
      "81": 81,
      "82": 82,
      "83": 83,
      "86": 86
    },
    "smart-shift": 15
  },
  "_version": "1.0.7"
}